…
# Add residue labels
offset = 327
mutlib <- mutlib |>
  mutate(residue = paste0(wildtype_residue, position + offset),
         mutation = paste0(residue, amino_acid))

# Write to file with hash for reproducibility
hash <- digest::digest(mutlib)
write_delim(mutlib, paste0("../data/mutlib-", hash, ".tsv"), delim = "\t")

mutlib
```

    ## # A tidytable: 4,224 × 15
    ##    dataset Name    Sequence       Count codon amino_acid position wildtype_codon
    ##      <int> <chr>   <chr>          <dbl> <chr> <chr>         <dbl> <chr>         
    ##  1       1 KRS1TTT TATGAAATTGGTA…  8945 TTT   Phe               1 GTA           
    ##  2       1 KRS1TTC TATGAAATTGGTA…  2152 TTC   Phe               1 GTA           
    ##  3       1 KRS1TTA TATGAAATTGGTA…  1682 TTA   Leu               1 GTA           
    ##  4       1 KRS1TTG TATGAAATTGGTA…  2826 TTG   Leu               1 GTA           
    ##  5       1 KRS1CTT TATGAAATTGGTA…  2245 CTT   Leu               1 GTA           
    ##  6       1 KRS1CTC TATGAAATTGGTA…   863 CTC   Leu               1 GTA           
    ##  7       1 KRS1CTA TATGAAATTGGTA…   850 CTA   Leu               1 GTA           
    ##  8       1 KRS1CTG TATGAAATTGGTA…  1099 CTG   Leu               1 GTA           
    ##  9       1 KRS1ATT TATGAAATTGGTA…  2254 ATT   Ile               1 GTA           
    ## 10       1 KRS1ATC TATGAAATTGGTA…  1378 ATC   Ile               1 GTA           
    ## # ℹ 4,214 more rows
    ## # ℹ 7 more variables: is_wildtype <lgl>, wildtype_residue <chr>,
    ## #   is_wildtype_residue <lgl>, condition <fct>, mutation_type <chr>,
    ## #   residue <chr>, mutation <chr>
…
