…
``` r
mutlib |>
  filter(!is_wildtype) |>  # exclude wildtype sequence
  group_by(condition, position) |>
  summarize(min = min(Count),
            max = max(Count),
            mean = mean(Count),
            median = median(Count),
            sd = sd(Count),
            n = n()) |>
  arrange(condition, position)
```

    ## # A tibble: 66 × 8
    ## # Groups:   condition [3]
    ##    condition position   min    max   mean median      sd     n
    ##    <chr>        <dbl> <dbl>  <dbl>  <dbl>  <dbl>   <dbl> <int>
    ##  1 706              0     0    354   15.6      0    56.1    63
    ##  2 706              1     3 186445 8716.     200 29760.     63
    ##  3 706              2     0  18925  950.      25  3456.     63
    ##  4 706              3     0    209   10.7      1    32.9    63
    ##  5 706              4     0    276   15.3      1    48.6    63
    ##  6 706              5     0    278   21.0      7    50.1    63
    ##  7 706              6     0   2149   52.4      8   270.     63
    ##  8 706              7     0   1427   65        6   215.     63
    ##  9 706              8     0    225   14.7      3    37.8    63
    ## 10 706              9     0   7588  247.       8  1048.     63
    ## # ℹ 56 more rows
…
