…
``` r
# Key sites
mutlib |>
  # filter(residue %in% c("Val328", "Asn339", "Phe342", "Ser344")) |>
  filter(residue %in% c("Ser344")) |>
  filter(condition != "Control") |>
  mutate(amino_acid = factor(amino_acid, levels = c("Arg", "His", "Lys", "Asp", "Glu", "Asn", "Gln", "Ser", "Thr", "Ala", "Gly", "Cys", "Pro", "Tyr", "Phe", "Trp", "Val", "Ile", "Leu", "Met", "Stop"))) |>
  mutate(position = position + -0.4 * (-0.5 * is_wildtype_residue)) ->  # dodge
  plot_data
plot_data
```

    ## # A tibble: 126 × 17
    ## # Groups:   position, codon [63]
    ##    dataset Name     Sequence      Count codon amino_acid position wildtype_codon
    ##      <dbl> <chr>    <chr>         <dbl> <chr> <fct>         <dbl> <chr>         
    ##  1       2 KRS17TTT TATGAAATTGG…    268 TTT   Phe              17 TCG           
    ##  2       2 KRS17TTC TATGAAATTGG…     86 TTC   Phe              17 TCG           
    ##  3       2 KRS17TTA TATGAAATTGG… 618384 TTA   Leu              17 TCG           
    ##  4       2 KRS17TTG TATGAAATTGG…   1918 TTG   Leu              17 TCG           
    ##  5       2 KRS17CTT TATGAAATTGG…   6384 CTT   Leu              17 TCG           
    ##  6       2 KRS17CTC TATGAAATTGG…     54 CTC   Leu              17 TCG           
    ##  7       2 KRS17CTA TATGAAATTGG…  18608 CTA   Leu              17 TCG           
    ##  8       2 KRS17CTG TATGAAATTGG…   1021 CTG   Leu              17 TCG           
    ##  9       2 KRS17ATT TATGAAATTGG…  77914 ATT   Ile              17 TCG           
    ## 10       2 KRS17ATC TATGAAATTGG…  62527 ATC   Ile              17 TCG           
    ## # ℹ 116 more rows
    ## # ℹ 9 more variables: is_wildtype <lgl>, wildtype_residue <chr>,
    ## #   is_wildtype_residue <lgl>, condition <chr>, mutation_type <chr>,
    ## #   residue <chr>, mutation <chr>, lib_prop <dbl>, rw_norm <dbl>
…
# position 17
mutlib |>
  # filter(residue %in% c("Val328", "Asn339", "Phe342", "Ser344")) |>
  filter(residue %in% c("Phe342")) |>
  filter(condition != "Control") |>
  mutate(amino_acid = factor(amino_acid, levels = c("Arg", "His", "Lys", "Asp", "Glu", "Asn", "Gln", "Ser", "Thr", "Ala", "Gly", "Cys", "Pro", "Tyr", "Phe", "Trp", "Val", "Ile", "Leu", "Met", "Stop"))) |>
  mutate(position = position + -0.4 * (-0.5 * is_wildtype_residue)) ->  # dodge
  plot_data
plot_data
```

    ## # A tibble: 126 × 18
    ## # Groups:   condition, position [4]
    ##    dataset Name     Sequence      Count codon amino_acid position wildtype_codon
    ##      <dbl> <chr>    <chr>         <dbl> <chr> <fct>         <dbl> <chr>         
    ##  1       2 KRS15TTC TATGAAATTGGT…   719 TTC   Phe            15.2 TTT           
    ##  2       2 KRS15TTA TATGAAATTGGT…    19 TTA   Leu            15   TTT           
    ##  3       2 KRS15TTG TATGAAATTGGT…     7 TTG   Leu            15   TTT           
    ##  4       2 KRS15CTT TATGAAATTGGT…    64 CTT   Leu            15   TTT           
    ##  5       2 KRS15CTC TATGAAATTGGT…     2 CTC   Leu            15   TTT           
    ##  6       2 KRS15CTA TATGAAATTGGT…     0 CTA   Leu            15   TTT           
    ##  7       2 KRS15CTG TATGAAATTGGT…     0 CTG   Leu            15   TTT           
    ##  8       2 KRS15ATT TATGAAATTGGT…   543 ATT   Ile            15   TTT           
    ##  9       2 KRS15ATC TATGAAATTGGT…     4 ATC   Ile            15   TTT           
    ## 10       2 KRS15ATA TATGAAATTGGT…     5 ATA   Ile            15   TTT           
    ## # ℹ 116 more rows
    ## # ℹ 10 more variables: is_wildtype <lgl>, wildtype_residue <chr>,
    ## #   is_wildtype_residue <lgl>, condition <chr>, mutation_type <chr>,
    ## #   residue <chr>, mutation <chr>, lib_prop <dbl>, rw_norm <dbl>,
    ## #   rw_norm_synonymous <dbl>
…
    ## Joining with `by = join_by(mutation)`

``` r
# save table
mutlib_table |>
  write_csv("results/03-compound-enrichments.csv")

mutlib_table
```

    ## # A tibble: 25 × 4
    ##    mutation   `706` Cladosporin minimal_edit_distance
    ##    <chr>      <dbl>       <dbl>                 <dbl>
    ##  1 Asn339Asn    2.4        NA                       1
    ##  2 Asn339Glu   28.5        30.8                     2
    ##  3 Asn339Lys    5.2         2.5                     1
    ##  4 Asn339Met   28.4        56.2                     2
    ##  5 Asn339Phe    2.4        NA                       2
    ##  6 Cys345Arg    2.3         5                       1
    ##  7 Cys345Asp    2.4         5.3                     2
    ##  8 His338Gln    2.4        NA                       1
    ##  9 His338Stop  32.3        16                       2
    ## 10 Phe329Pro    5.7         2.4                     2
    ## # ℹ 15 more rows
