…
``` r
results |>
  left_join(mutlib[mutlib$dataset == 1, c("Name", "position")],
            by = c("Name" = "Name")) |>  # join position
  filter(padj < 0.05) |>
  # select highest enriched mutant per position
  group_by(position, mutation_type) |>
  filter(logFC == max(logFC)) |>
  arrange(desc(logFC)) ->
  site_summary
site_summary
```

    ## # A tibble: 47 × 11
    ## # Groups:   position, mutation_type [47]
    ##    Name     logFC logCPM    LR      PValue        FDR mutation   mutation_label
    ##    <chr>    <dbl>  <dbl> <dbl>       <dbl>      <dbl> <chr>      <chr>         
    ##  1 KRS17ATG 11.8    17.6  26.7 0.000000236 0.00000472 Ser344Met  S344M         
    ##  2 KRS12ATG 11.2    15.0  19.9 0.00000825  0.0000560  Asn339Met  N339M         
    ##  3 KRS15TAT 10.4    18.5  19.6 0.00000948  0.0000614  Phe342Tyr  F342Y         
    ##  4 KRS16TAA  9.88   17.2  19.7 0.00000925  0.0000609  Thr343Stop T343NA        
    ##  5 KRS11TAA  9.83   17.1  24.9 0.000000617 0.00000864 His338Stop H338NA        
    ##  6 KRS1GGT   9.82   15.9  24.3 0.000000820 0.00000986 Val328Gly  V328G         
    ##  7 KRS18GAT  8.35   13.1  13.0 0.000317    0.00109    Cys345Asp  C345D         
    ##  8 KRS2CCT   7.29   13.7  15.8 0.0000695   0.000302   Phe329Pro  F329P         
    ##  9 KRS2TAA   6.98   13.5  14.6 0.000133    0.000522   Phe329Stop F329NA        
    ## 10 KRS12AAC  6.14   10.5  12.2 0.000479    0.00152    Asn339Asn  N339N         
    ## # ℹ 37 more rows
    ## # ℹ 3 more variables: mutation_type <chr>, padj <dbl>, position <dbl>
…
